Code;Groupe;Age;Genre;NSC;MMSE;MOCA;bostonT;DMS48-Immediat;DMS48-1heure;DMS48-1sem
1450;Alzheimer;70;Féminin;12;26;22;28;37;32;25
1451;Alzheimer;79;Masculin;10;25;26;27;47;46;45
1452;Alzheimer;73;Féminin;12;27;25;30;43;36;36
1453;Alzheimer;79;Masculin;19;25;20;29;35;30;29
1454;Alzheimer;83;Masculin;12;26;21;23;39;42;
1455;Alzheimer;67;Féminin;15;25;18;28;33;26;39
1456;Alzheimer;76;Masculin;8;20;15;26;44;45;40
1457;Alzheimer;77;Féminin;15;25;23;28;37;39;32
1458;Alzheimer;72;Féminin;13;26;19;15;37;43;39
1459;Alzheimer;74;Féminin;13;;24;26;24;30;25
1460;Alzheimer;82;Féminin;10;24;17;22;42;33;32
1461;Alzheimer;81;Féminin;19;25;26;29;33;29;34
1462;Alzheimer;88;Masculin;9;23;18;25;35;33;28
1340;Contrôle;64;Féminin;13;30;29;30;48;48;47
1341;Contrôle;70;Féminin;14;29;29;30;48;46;45
1342;Contrôle;76;Féminin;12;30;29;29;46;48;46
1343;Contrôle;68;Masculin;16;30;26;30;47;47;48
1344;Contrôle;83;Féminin;16;29;26;28;48;47;41
1345;Contrôle;69;Masculin;12;29;28;29;46;47;43
1346;Contrôle;74;Féminin;12;29;29;28;44;43;47
1347;Contrôle;67;Féminin;12;29;30;30;48;48;48
1348;Contrôle;79;Féminin;12;26;27;29;45;48;47
1349;Contrôle;77;Féminin;17;29;29;30;46;46;48
1350;Contrôle;73;Masculin;11;30;26;30;45;43;44
1351;Contrôle;69;Féminin;22;28;27;29;47;46;
1220;MCI amnésique;65;Féminin;11;29;25;30;48;47;47
1221;MCI amnésique;85;Féminin;16;29;25;30;48;48;48
1222;MCI amnésique;76;Féminin;7;28;22;28;44;44;46
1223;MCI amnésique;78;Masculin;16;30;29;28;45;44;40
1224;MCI amnésique;75;Masculin;19;30;29;30;44;46;45
1225;MCI amnésique;78;Féminin;14;28;26;27;42;45;44
1226;MCI amnésique;86;Féminin;17;30;26;21;43;40;44
1227;MCI amnésique;77;Masculin;16;28;24;29;37;41;38
1228;MCI amnésique;84;Masculin;16;26;26;28;46;46;45
1229;MCI amnésique;76;Féminin;11;29;25;29;48;48;46
1230;MCI amnésique;88;Féminin;11;29;25;20;47;47;44
1231;MCI amnésique;69;Féminin;18;28;25;28;45;45;44
